Modeling and prediction for movies
…
The dataset consists of 32 variables. We exclude variables that 1) do not provide meaningful prediction 2) randomly related to movie ratings 3) provide redundant or collinear information. 4) do not meet linear regression conditions

1) do not provide meaningful prediction

The following categorical variables are unique (or almost unique) to each movies, such as title, director, first main actor/actress, movies link to IMDP page, and so on. If we consider these variables, there will be too many categories to obtain meaningful findings in our prediction. We will not include these 9 variables: title, studio, director, actor1, actor2, actor3, actor4, actor5, imdb_url, rt_url.

For example, variable studio indicates the studio that produced the movie. Using the following R code, we find that there are 212 categories in studio, too many to provide meaningful prediction.

movies%>%
group_by(studio)%>%
summarise(count=n())

## # A tibble: 212 x 2
##    studio                            count
##    <fct>                             <int>
##  1 20th Century Fox                     18
##  2 20th Century Fox Film Corporat        2
##  3 20th Century Fox Film Corporation     5
##  4 7-57 Releasing                        1
##  5 7th art                               1
##  6 905 Corporation                       1
##  7 A24                                   1
##  8 A24 Films                             2
##  9 All Girl Productions                  1
## 10 Alliance Atlantis Communications      1
## # ... with 202 more rows
…
